1, 1, 6.75
1, 2, 8.4
1, 4, 8.4
1, 8, 8.3
1, 16, 8.35
1, 32, 8.4
1, 64, 8.4
1, 128, 8.3
1, 256, 8.3
1, 512, 8.35
1, 1024, 8.4
1, 2048, 8.4
1, 4096, 8.4
1, 8192, 8.4
1, 16384, 8.3
2, 1, 8.3
2, 2, 8.4
2, 4, 8.35
2, 8, 8.4
2, 16, 8.4
2, 32, 8.35
2, 64, 8.3
2, 128, 8.3
2, 256, 8.3
2, 512, 8.4
2, 1024, 8.35
2, 2048, 8.3
2, 4096, 8.3
2, 8192, 8.3
2, 16384, 8.3
4, 1, 8.3
4, 2, 8.45
4, 4, 8.35
4, 8, 8.4
4, 16, 8.4
4, 32, 8.4
4, 64, 8.4
4, 128, 8.35
4, 256, 8.35
4, 512, 8.4
4, 1024, 8.4
4, 2048, 8.4
4, 4096, 8.4
4, 8192, 8.4
4, 16384, 8.35
8, 1, 8.4
8, 2, 8.3
8, 4, 8.35
8, 8, 8.4
8, 16, 8.3
8, 32, 8.4
8, 64, 8.4
8, 128, 8.4
8, 256, 8.4
8, 512, 8.4
8, 1024, 8.4
8, 2048, 8.35
8, 4096, 8.35
8, 8192, 8.35
8, 16384, 8.35
16, 1, 8.4
16, 2, 8.35
16, 4, 8.3
16, 8, 8.3
16, 16, 8.25
16, 32, 8.3
16, 64, 8.3
16, 128, 8.3
16, 256, 8.3
16, 512, 8.3
16, 1024, 8.3
16, 2048, 8.4
16, 4096, 8.4
16, 8192, 8.4
16, 16384, 8.4
32, 1, 8.4
32, 2, 8.3
32, 4, 8.35
32, 8, 8.4
32, 16, 8.3
32, 32, 8.4
32, 64, 8.4
32, 128, 8.4
32, 256, 8.4
32, 512, 8.4
32, 1024, 8.4
32, 2048, 8.4
32, 4096, 8.4
32, 8192, 8.4
32, 16384, 8.35
64, 1, 8.4
64, 2, 8.3
64, 4, 8.35
64, 8, 8.4
64, 16, 8.3
64, 32, 8.35
64, 64, 8.45
64, 128, 8.3
64, 256, 8.3
64, 512, 8.3
64, 1024, 8.3
64, 2048, 8.3
64, 4096, 8.4
64, 8192, 8.4
64, 16384, 8.3
128, 1, 8.3
128, 2, 8.35
128, 4, 8.4
128, 8, 8.3
128, 16, 8.35
128, 32, 8.4
128, 64, 8.3
128, 128, 8.35
128, 256, 8.4
128, 512, 8.35
128, 1024, 8.35
128, 2048, 8.3
128, 4096, 8.3
128, 8192, 8.3
128, 16384, 8.3
256, 1, 8.3
256, 2, 8.35
256, 4, 8.4
256, 8, 8.3
256, 16, 8.3
256, 32, 8.4
256, 64, 8.3
256, 128, 8.35
256, 256, 8.4
256, 512, 8.25
256, 1024, 8.35
256, 2048, 8.35
256, 4096, 8.3
256, 8192, 8.3
256, 16384, 8.3
512, 1, 8.3
512, 2, 8.35
512, 4, 8.4
512, 8, 8.3
512, 16, 8.35
512, 32, 8.4
512, 64, 8.3
512, 128, 8.35
512, 256, 8.4
512, 512, 8.3
512, 1024, 8.3
512, 2048, 8.3
512, 4096, 8.3
512, 8192, 8.3
512, 16384, 8.3
1024, 1, 8.3
1024, 2, 8.35
1024, 4, 8.3
1024, 8, 8.3
1024, 16, 8.4
1024, 32, 8.3
1024, 64, 8.3
1024, 128, 8.35
1024, 256, 8.3
1024, 512, 8.3
1024, 1024, 8.35
1024, 2048, 8.4
1024, 4096, 8.25
1024, 8192, 8.3
1024, 16384, 8.3
2048, 1, 8.3
2048, 2, 8.35
2048, 4, 8.3
2048, 8, 8.3
2048, 16, 8.4
2048, 32, 8.3
2048, 64, 8.35
2048, 128, 8.3
2048, 256, 8.3
2048, 512, 8.4
2048, 1024, 8.3
2048, 2048, 8.3
2048, 4096, 8.35
2048, 8192, 8.35
2048, 16384, 8.3
4096, 1, 8.35
4096, 2, 8.4
4096, 4, 8.3
4096, 8, 8.35
4096, 16, 8.3
4096, 32, 8.35
4096, 64, 8.4
4096, 128, 8.3
4096, 256, 8.35
4096, 512, 8.4
4096, 1024, 8.3
4096, 2048, 8.3
4096, 4096, 8.35
4096, 8192, 8.3
4096, 16384, 8.3
8192, 1, 8.3
8192, 2, 8.25
8192, 4, 8.4
8192, 8, 8.3
8192, 16, 8.35
8192, 32, 8.3
8192, 64, 8.3
8192, 128, 8.45
8192, 256, 8.4
8192, 512, 8.3
8192, 1024, 8.3
8192, 2048, 8.4
8192, 4096, 8.3
8192, 8192, 8.35
8192, 16384, 8.35
16384, 1, 8.4
16384, 2, 8.35
16384, 4, 8.4
16384, 8, 8.35
16384, 16, 8.3
16384, 32, 8.35
16384, 64, 8.3
16384, 128, 8.45
16384, 256, 8.35
16384, 512, 8.3
16384, 1024, 8.3
16384, 2048, 8.3
16384, 4096, 8.3
16384, 8192, 8.35
16384, 16384, 8.35
32768, 1, 8.45
32768, 2, 8.45
32768, 4, 8.6
32768, 8, 8.5
32768, 16, 9.25
32768, 32, 10.25
32768, 64, 10.5
32768, 128, 10.45
32768, 256, 13.4
32768, 512, 10.8
32768, 1024, 10.75
32768, 2048, 11.45
32768, 4096, 12.65
32768, 8192, 8.35
32768, 16384, 8.4
65536, 1, 8.4
65536, 2, 8.5
65536, 4, 8.7
65536, 8, 8.5
65536, 16, 9.65
65536, 32, 10.85
65536, 64, 11.45
65536, 128, 11.4
65536, 256, 13.7
65536, 512, 14.15
65536, 1024, 14.65
65536, 2048, 15.65
65536, 4096, 17.5
65536, 8192, 10.75
65536, 16384, 8.3
131072, 1, 8.4
131072, 2, 8.55
131072, 4, 8.55
131072, 8, 8.55
131072, 16, 9.35
131072, 32, 10.2
131072, 64, 11.05
131072, 128, 11.2
131072, 256, 14.8
131072, 512, 15.05
131072, 1024, 15.65
131072, 2048, 16.55
131072, 4096, 18.4
131072, 8192, 17.5
131072, 16384, 10
262144, 1, 8.5
262144, 2, 8.55
262144, 4, 8.7
262144, 8, 8.9
262144, 16, 9.45
262144, 32, 10.4
262144, 64, 11.5
262144, 128, 11.45
262144, 256, 15.1
262144, 512, 15.25
262144, 1024, 15.95
262144, 2048, 16.9
262144, 4096, 18.6
262144, 8192, 18.6
262144, 16384, 17.8
524288, 1, 9
524288, 2, 9.25
524288, 4, 9.8
524288, 8, 13.1
524288, 16, 12.85
524288, 32, 16.4
524288, 64, 20.3
524288, 128, 20.65
524288, 256, 31.7
524288, 512, 29.35
524288, 1024, 33
524288, 2048, 34.45
524288, 4096, 35.2
524288, 8192, 18.65
524288, 16384, 18.5
1048576, 1, 9.4
1048576, 2, 10.1
1048576, 4, 11.55
1048576, 8, 21.05
1048576, 16, 19.55
1048576, 32, 27.7
1048576, 64, 49.35
1048576, 128, 50.3
1048576, 256, 79.9
1048576, 512, 67.85
1048576, 1024, 69.15
1048576, 2048, 77.95
1048576, 4096, 83.75
1048576, 8192, 56
1048576, 16384, 48.95
2097152, 1, 9.6
2097152, 2, 10.35
2097152, 4, 12.05
2097152, 8, 23.55
2097152, 16, 21.7
2097152, 32, 32.6
2097152, 64, 57.3
2097152, 128, 61.7
2097152, 256, 97
2097152, 512, 88.8
2097152, 1024, 90
2097152, 2048, 95.3
2097152, 4096, 99.55
2097152, 8192, 92.45
2097152, 16384, 96.05
4194304, 1, 9.55
4194304, 2, 10.45
4194304, 4, 12.1
4194304, 8, 23.7
4194304, 16, 21.8
4194304, 32, 32.9
4194304, 64, 60.55
4194304, 128, 63.05
4194304, 256, 98.35
4194304, 512, 97.45
4194304, 1024, 98.95
4194304, 2048, 104.55
4194304, 4096, 107.4
4194304, 8192, 99.15
4194304, 16384, 102.55
8388608, 1, 9.75
8388608, 2, 10.4
8388608, 4, 12.05
8388608, 8, 23.7
8388608, 16, 21.8
8388608, 32, 32.85
8388608, 64, 60.5
8388608, 128, 62.95
8388608, 256, 98.3
8388608, 512, 98.65
8388608, 1024, 101.4
8388608, 2048, 106.4
8388608, 4096, 111.6
8388608, 8192, 110.55
8388608, 16384, 111.5
16777216, 1, 9.9
16777216, 2, 10.4
16777216, 4, 12
16777216, 8, 23.65
16777216, 16, 21.8
16777216, 32, 32.85
16777216, 64, 60.35
16777216, 128, 62.95
16777216, 256, 98.45
16777216, 512, 98.6
16777216, 1024, 101
16777216, 2048, 106.35
16777216, 4096, 108.3
16777216, 8192, 112.65
16777216, 16384, 114.6
33554432, 1, 9.65
33554432, 2, 11.3
33554432, 4, 12.1
33554432, 8, 23.65
33554432, 16, 21.75
33554432, 32, 32.8
33554432, 64, 60.5
33554432, 128, 63.2
33554432, 256, 98.45
33554432, 512, 98.55
33554432, 1024, 100.8
33554432, 2048, 104.65
33554432, 4096, 112.35
33554432, 8192, 116.1
33554432, 16384, 121.45
